Project2
…
There is a positive correlation between the mean payroll and mean winning percentage for every 5 year period. The most significant positive correlation in the periods 1995 to 2000 and 2004 to 2009.

PROBLEM 5

I calculated the standardized formula using the given formula st_payroll = (pay_roll - mean_payroll)/st_dev

values <- payroll_df %>%
  group_by(yearID) %>%
  dplyr::summarise(mean_sal = mean(sum_sal), sd_sal = sd(sum_sal)) %>%
  inner_join(payroll_df, by="yearID") %>%
  mutate (z = (((sum_sal * 1.0) - (mean_sal*1.0)) / (sd_sal*1.0) ))

values

## # A tibble: 728 x 11
##    yearID mean_sal sd_sal teamID franchID     W     L     G sum_sal WPERC
##     <int>    <dbl>  <dbl> <chr>  <chr>    <int> <int> <int>   <dbl> <dbl>
##  1   1990   1.71e7 3.77e6 ATL    ATL         65    97   162  1.46e7  40.1
##  2   1990   1.71e7 3.77e6 BAL    BAL         76    85   161  9.68e6  47.2
##  3   1990   1.71e7 3.77e6 BOS    BOS         88    74   162  2.06e7  54.3
##  4   1990   1.71e7 3.77e6 CAL    ANA         80    82   162  2.17e7  49.4
##  5   1990   1.71e7 3.77e6 CHA    CHW         94    68   162  9.49e6  58.0
##  6   1990   1.71e7 3.77e6 CHN    CHC         77    85   162  1.36e7  47.5
##  7   1990   1.71e7 3.77e6 CIN    CIN         91    71   162  1.44e7  56.2
##  8   1990   1.71e7 3.77e6 CLE    CLE         77    85   162  1.45e7  47.5
##  9   1990   1.71e7 3.77e6 DET    DET         79    83   162  1.76e7  48.8
## 10   1990   1.71e7 3.77e6 HOU    HOU         75    87   162  1.83e7  46.3
## # ... with 718 more rows, and 1 more variable: z <dbl>

PROBLEM 6

I split the payroll_df into five categories based on yearID in 5 year ranges. Then I created a standardized variable z to standardize payroll. Finally I graphed all 5 split tables with mean standardized value on the x-axis and the mean winning percentage on the y-axis.

values <- payroll_df %>%
  group_by(yearID) %>%
  dplyr::summarise(mean_sal = mean(sum_sal), sd_sal = sd(sum_sal)) %>%
  inner_join(payroll_df, by="yearID") %>%
  mutate (z = (((sum_sal * 1.0) - (mean_sal*1.0)) / (sd_sal*1.0) ))

values

## # A tibble: 728 x 11
##    yearID mean_sal sd_sal teamID franchID     W     L     G sum_sal WPERC
##     <int>    <dbl>  <dbl> <chr>  <chr>    <int> <int> <int>   <dbl> <dbl>
##  1   1990   1.71e7 3.77e6 ATL    ATL         65    97   162  1.46e7  40.1
##  2   1990   1.71e7 3.77e6 BAL    BAL         76    85   161  9.68e6  47.2
##  3   1990   1.71e7 3.77e6 BOS    BOS         88    74   162  2.06e7  54.3
##  4   1990   1.71e7 3.77e6 CAL    ANA         80    82   162  2.17e7  49.4
##  5   1990   1.71e7 3.77e6 CHA    CHW         94    68   162  9.49e6  58.0
##  6   1990   1.71e7 3.77e6 CHN    CHC         77    85   162  1.36e7  47.5
##  7   1990   1.71e7 3.77e6 CIN    CIN         91    71   162  1.44e7  56.2
##  8   1990   1.71e7 3.77e6 CLE    CLE         77    85   162  1.45e7  47.5
##  9   1990   1.71e7 3.77e6 DET    DET         79    83   162  1.76e7  48.8
## 10   1990   1.71e7 3.77e6 HOU    HOU         75    87   162  1.83e7  46.3
## # ... with 718 more rows, and 1 more variable: z <dbl>
…
